{
  "openapi": "3.0.0",
  "info": {
    "contact": {
      "email": "dtoceanplus.integration@opencascade.com",
      "name": "OpenCasCade DTOceanPlus team"
    },
    "description": "",
    "termsOfService": "https://www.dtoceanplus.eu/",
    "title": "DTOP catalog  'dtop-catalog-power_take_off_components'  OpenAPI ",
    "version": "0.0.1"
  },
  "servers": [
    {
      "url": "/api"
    }
  ],
  "paths": {
    "/control": {
      "get": {
        "parameters": [
          {
            "description": "Control relationships to include (csv)",
            "in": "query",
            "name": "include",
            "required": false,
            "schema": {
              "default": "",
              "format": "string",
              "type": "string"
            }
          },
          {
            "description": "Control fields to include (csv)",
            "in": "query",
            "name": "fields[Control]",
            "required": false,
            "schema": {
              "default": "id,name,control_type,date,adim_vel,power_pdf,load_pdf,load_range_pdf",
              "format": "string",
              "type": "string"
            }
          },
          {
            "description": "Page offset",
            "in": "query",
            "name": "page[offset]",
            "required": false,
            "schema": {
              "default": 0,
              "format": "int64",
              "type": "integer"
            }
          },
          {
            "description": "Max number of items",
            "in": "query",
            "name": "page[limit]",
            "required": false,
            "schema": {
              "default": 10,
              "format": "int64",
              "type": "integer"
            }
          },
          {
            "description": "Sort order",
            "in": "query",
            "name": "sort",
            "required": false,
            "schema": {
              "default": "id,name,control_type,date,adim_vel,power_pdf,load_pdf,load_range_pdf,id",
              "format": "string",
              "type": "string"
            }
          },
          {
            "description": "id attribute filter (csv)",
            "in": "query",
            "name": "filter[id]",
            "required": false,
            "schema": {
              "default": "",
              "format": "string",
              "type": "string"
            }
          },
          {
            "description": "name attribute filter (csv)",
            "in": "query",
            "name": "filter[name]",
            "required": false,
            "schema": {
              "default": "",
              "format": "string",
              "type": "string"
            }
          },
          {
            "description": "control_type attribute filter (csv)",
            "in": "query",
            "name": "filter[control_type]",
            "required": false,
            "schema": {
              "default": "",
              "format": "string",
              "type": "string"
            }
          },
          {
            "description": "date attribute filter (csv)",
            "in": "query",
            "name": "filter[date]",
            "required": false,
            "schema": {
              "default": "",
              "format": "string",
              "type": "string"
            }
          },
          {
            "description": "adim_vel attribute filter (csv)",
            "in": "query",
            "name": "filter[adim_vel]",
            "required": false,
            "schema": {
              "default": "",
              "format": "string",
              "type": "string"
            }
          },
          {
            "description": "power_pdf attribute filter (csv)",
            "in": "query",
            "name": "filter[power_pdf]",
            "required": false,
            "schema": {
              "default": "",
              "format": "string",
              "type": "string"
            }
          },
          {
            "description": "load_pdf attribute filter (csv)",
            "in": "query",
            "name": "filter[load_pdf]",
            "required": false,
            "schema": {
              "default": "",
              "format": "string",
              "type": "string"
            }
          },
          {
            "description": "load_range_pdf attribute filter (csv)",
            "in": "query",
            "name": "filter[load_range_pdf]",
            "required": false,
            "schema": {
              "default": "",
              "format": "string",
              "type": "string"
            }
          },
          {
            "description": "Custom Control filter",
            "in": "query",
            "name": "filter",
            "required": false,
            "schema": {
              "default": "",
              "format": "string",
              "type": "string"
            }
          },
          {
            "description": "string parameter",
            "in": "header",
            "name": "Content-Type",
            "required": true,
            "schema": {
              "default": "application/json",
              "enum": ["application/vnd.api+json", "application/json"],
              "type": "string"
            }
          }
        ],
        "responses": {
          "200": {
            "content": {
              "application/json": {
                "schema": {
                  "$ref": "#/components/schemas/Control_get"
                }
              }
            },
            "description": "OK"
          },
          "403": {
            "description": "Forbidden"
          },
          "404": {
            "description": "Not Found"
          }
        },
        "tags": ["control"],
        "description": "Retrieve Control from control",
        "operationId": "RetrieveaControlobject_0",
        "summary": "Retrieve a collection of Control objects"
      },
      "post": {
        "parameters": [
          {
            "description": "string parameter",
            "in": "header",
            "name": "Content-Type",
            "required": true,
            "schema": {
              "default": "application/json",
              "enum": ["application/vnd.api+json", "application/json"],
              "type": "string"
            }
          }
        ],
        "responses": {
          "201": {
            "description": "Created"
          },
          "403": {
            "description": "Forbidden"
          },
          "404": {
            "description": "Not Found"
          }
        },
        "tags": ["control"],
        "operationId": "CreateControl_0",
        "requestBody": {
          "content": {
            "application/json": {
              "schema": {
                "$ref": "#/components/schemas/Control_post"
              }
            }
          },
          "description": "Control attributes",
          "required": true
        },
        "summary": "Create Control"
      }
    },
    "/control/{ControlId}": {
      "delete": {
        "parameters": [
          {
            "description": "integer parameter",
            "in": "path",
            "name": "ControlId",
            "required": true,
            "schema": {
              "default": 1,
              "format": "int64",
              "type": "integer"
            }
          },
          {
            "description": "string parameter",
            "in": "header",
            "name": "Content-Type",
            "required": true,
            "schema": {
              "default": "application/json",
              "enum": ["application/vnd.api+json", "application/json"],
              "type": "string"
            }
          }
        ],
        "responses": {
          "204": {
            "description": "Request fulfilled, nothing follows"
          },
          "403": {
            "description": "Forbidden"
          },
          "404": {
            "description": "Not Found"
          }
        },
        "tags": ["control"],
        "operationId": "DeleteControlfromcontrol_0",
        "summary": "Delete Control from control"
      },
      "get": {
        "parameters": [
          {
            "description": "Control relationships to include (csv)",
            "in": "query",
            "name": "include",
            "required": false,
            "schema": {
              "default": "",
              "format": "string",
              "type": "string"
            }
          },
          {
            "description": "Control fields to include (csv)",
            "in": "query",
            "name": "fields[Control]",
            "required": false,
            "schema": {
              "default": "id,name,control_type,date,adim_vel,power_pdf,load_pdf,load_range_pdf",
              "format": "string",
              "type": "string"
            }
          },
          {
            "description": "integer parameter",
            "in": "path",
            "name": "ControlId",
            "required": true,
            "schema": {
              "default": 1,
              "format": "int64",
              "type": "integer"
            }
          },
          {
            "description": "string parameter",
            "in": "header",
            "name": "Content-Type",
            "required": true,
            "schema": {
              "default": "application/json",
              "enum": ["application/vnd.api+json", "application/json"],
              "type": "string"
            }
          }
        ],
        "responses": {
          "200": {
            "content": {
              "application/json": {
                "schema": {
                  "$ref": "#/components/schemas/Control_get"
                }
              }
            },
            "description": "OK"
          },
          "403": {
            "description": "Forbidden"
          },
          "404": {
            "description": "Not Found"
          }
        },
        "tags": ["control"],
        "description": "Retrieve Control from control",
        "operationId": "RetrieveaControlobject_1",
        "summary": "Retrieve a Control object"
      },
      "patch": {
        "parameters": [
          {
            "description": "integer parameter",
            "in": "path",
            "name": "ControlId",
            "required": true,
            "schema": {
              "default": 1,
              "format": "int64",
              "type": "integer"
            }
          },
          {
            "description": "string parameter",
            "in": "header",
            "name": "Content-Type",
            "required": true,
            "schema": {
              "default": "application/json",
              "enum": ["application/vnd.api+json", "application/json"],
              "type": "string"
            }
          }
        ],
        "responses": {
          "201": {
            "description": "Created"
          },
          "403": {
            "description": "Forbidden"
          },
          "404": {
            "description": "Not Found"
          }
        },
        "tags": ["control"],
        "description": "Update Control attributes",
        "operationId": "UpdateControl_0",
        "requestBody": {
          "content": {
            "application/json": {
              "schema": {
                "$ref": "#/components/schemas/Control_patch"
              }
            }
          },
          "description": "Control attributes",
          "required": true
        },
        "summary": "Update Control"
      }
    },
    "/electt_scig": {
      "get": {
        "parameters": [
          {
            "description": "ElecttScig relationships to include (csv)",
            "in": "query",
            "name": "include",
            "required": false,
            "schema": {
              "default": "",
              "format": "string",
              "type": "string"
            }
          },
          {
            "description": "ElecttScig fields to include (csv)",
            "in": "query",
            "name": "fields[ElecttScig]",
            "required": false,
            "schema": {
              "default": "id,name,Type,Manufacturer,Date,I_nom,Gen_mass,cost,Life,wind_mass_fraction,Res,shaft_diam,sigma_e,sigma_h,B,phi_cos,thick_max",
              "format": "string",
              "type": "string"
            }
          },
          {
            "description": "Page offset",
            "in": "query",
            "name": "page[offset]",
            "required": false,
            "schema": {
              "default": 0,
              "format": "int64",
              "type": "integer"
            }
          },
          {
            "description": "Max number of items",
            "in": "query",
            "name": "page[limit]",
            "required": false,
            "schema": {
              "default": 10,
              "format": "int64",
              "type": "integer"
            }
          },
          {
            "description": "Sort order",
            "in": "query",
            "name": "sort",
            "required": false,
            "schema": {
              "default": "id,name,Type,Manufacturer,Date,I_nom,Gen_mass,cost,Life,wind_mass_fraction,Res,shaft_diam,sigma_e,sigma_h,B,phi_cos,thick_max,id",
              "format": "string",
              "type": "string"
            }
          },
          {
            "description": "id attribute filter (csv)",
            "in": "query",
            "name": "filter[id]",
            "required": false,
            "schema": {
              "default": "",
              "format": "string",
              "type": "string"
            }
          },
          {
            "description": "name attribute filter (csv)",
            "in": "query",
            "name": "filter[name]",
            "required": false,
            "schema": {
              "default": "",
              "format": "string",
              "type": "string"
            }
          },
          {
            "description": "Type attribute filter (csv)",
            "in": "query",
            "name": "filter[Type]",
            "required": false,
            "schema": {
              "default": "",
              "format": "string",
              "type": "string"
            }
          },
          {
            "description": "Manufacturer attribute filter (csv)",
            "in": "query",
            "name": "filter[Manufacturer]",
            "required": false,
            "schema": {
              "default": "",
              "format": "string",
              "type": "string"
            }
          },
          {
            "description": "Date attribute filter (csv)",
            "in": "query",
            "name": "filter[Date]",
            "required": false,
            "schema": {
              "default": "",
              "format": "string",
              "type": "string"
            }
          },
          {
            "description": "I_nom attribute filter (csv)",
            "in": "query",
            "name": "filter[I_nom]",
            "required": false,
            "schema": {
              "default": "",
              "format": "string",
              "type": "string"
            }
          },
          {
            "description": "Gen_mass attribute filter (csv)",
            "in": "query",
            "name": "filter[Gen_mass]",
            "required": false,
            "schema": {
              "default": "",
              "format": "string",
              "type": "string"
            }
          },
          {
            "description": "cost attribute filter (csv)",
            "in": "query",
            "name": "filter[cost]",
            "required": false,
            "schema": {
              "default": "",
              "format": "string",
              "type": "string"
            }
          },
          {
            "description": "Life attribute filter (csv)",
            "in": "query",
            "name": "filter[Life]",
            "required": false,
            "schema": {
              "default": "",
              "format": "string",
              "type": "string"
            }
          },
          {
            "description": "wind_mass_fraction attribute filter (csv)",
            "in": "query",
            "name": "filter[wind_mass_fraction]",
            "required": false,
            "schema": {
              "default": "",
              "format": "string",
              "type": "string"
            }
          },
          {
            "description": "Res attribute filter (csv)",
            "in": "query",
            "name": "filter[Res]",
            "required": false,
            "schema": {
              "default": "",
              "format": "string",
              "type": "string"
            }
          },
          {
            "description": "shaft_diam attribute filter (csv)",
            "in": "query",
            "name": "filter[shaft_diam]",
            "required": false,
            "schema": {
              "default": "",
              "format": "string",
              "type": "string"
            }
          },
          {
            "description": "sigma_e attribute filter (csv)",
            "in": "query",
            "name": "filter[sigma_e]",
            "required": false,
            "schema": {
              "default": "",
              "format": "string",
              "type": "string"
            }
          },
          {
            "description": "sigma_h attribute filter (csv)",
            "in": "query",
            "name": "filter[sigma_h]",
            "required": false,
            "schema": {
              "default": "",
              "format": "string",
              "type": "string"
            }
          },
          {
            "description": "B attribute filter (csv)",
            "in": "query",
            "name": "filter[B]",
            "required": false,
            "schema": {
              "default": "",
              "format": "string",
              "type": "string"
            }
          },
          {
            "description": "phi_cos attribute filter (csv)",
            "in": "query",
            "name": "filter[phi_cos]",
            "required": false,
            "schema": {
              "default": "",
              "format": "string",
              "type": "string"
            }
          },
          {
            "description": "thick_max attribute filter (csv)",
            "in": "query",
            "name": "filter[thick_max]",
            "required": false,
            "schema": {
              "default": "",
              "format": "string",
              "type": "string"
            }
          },
          {
            "description": "Custom ElecttScig filter",
            "in": "query",
            "name": "filter",
            "required": false,
            "schema": {
              "default": "",
              "format": "string",
              "type": "string"
            }
          },
          {
            "description": "string parameter",
            "in": "header",
            "name": "Content-Type",
            "required": true,
            "schema": {
              "default": "application/json",
              "enum": ["application/vnd.api+json", "application/json"],
              "type": "string"
            }
          }
        ],
        "responses": {
          "200": {
            "content": {
              "application/json": {
                "schema": {
                  "$ref": "#/components/schemas/ElecttScig_get"
                }
              }
            },
            "description": "OK"
          },
          "403": {
            "description": "Forbidden"
          },
          "404": {
            "description": "Not Found"
          }
        },
        "tags": ["electt_scig"],
        "description": "Retrieve ElecttScig from electt_scig",
        "operationId": "RetrieveaElecttScigobject_0",
        "summary": "Retrieve a collection of ElecttScig objects"
      },
      "post": {
        "parameters": [
          {
            "description": "string parameter",
            "in": "header",
            "name": "Content-Type",
            "required": true,
            "schema": {
              "default": "application/json",
              "enum": ["application/vnd.api+json", "application/json"],
              "type": "string"
            }
          }
        ],
        "responses": {
          "201": {
            "description": "Created"
          },
          "403": {
            "description": "Forbidden"
          },
          "404": {
            "description": "Not Found"
          }
        },
        "tags": ["electt_scig"],
        "operationId": "CreateElecttScig_0",
        "requestBody": {
          "content": {
            "application/json": {
              "schema": {
                "$ref": "#/components/schemas/ElecttScig_post"
              }
            }
          },
          "description": "ElecttScig attributes",
          "required": true
        },
        "summary": "Create ElecttScig"
      }
    },
    "/electt_scig/{ElecttScigId}": {
      "delete": {
        "parameters": [
          {
            "description": "integer parameter",
            "in": "path",
            "name": "ElecttScigId",
            "required": true,
            "schema": {
              "default": 1,
              "format": "int64",
              "type": "integer"
            }
          },
          {
            "description": "string parameter",
            "in": "header",
            "name": "Content-Type",
            "required": true,
            "schema": {
              "default": "application/json",
              "enum": ["application/vnd.api+json", "application/json"],
              "type": "string"
            }
          }
        ],
        "responses": {
          "204": {
            "description": "Request fulfilled, nothing follows"
          },
          "403": {
            "description": "Forbidden"
          },
          "404": {
            "description": "Not Found"
          }
        },
        "tags": ["electt_scig"],
        "operationId": "DeleteElecttScigfromelecttscig_0",
        "summary": "Delete ElecttScig from electt_scig"
      },
      "get": {
        "parameters": [
          {
            "description": "ElecttScig relationships to include (csv)",
            "in": "query",
            "name": "include",
            "required": false,
            "schema": {
              "default": "",
              "format": "string",
              "type": "string"
            }
          },
          {
            "description": "ElecttScig fields to include (csv)",
            "in": "query",
            "name": "fields[ElecttScig]",
            "required": false,
            "schema": {
              "default": "id,name,Type,Manufacturer,Date,I_nom,Gen_mass,cost,Life,wind_mass_fraction,Res,shaft_diam,sigma_e,sigma_h,B,phi_cos,thick_max",
              "format": "string",
              "type": "string"
            }
          },
          {
            "description": "integer parameter",
            "in": "path",
            "name": "ElecttScigId",
            "required": true,
            "schema": {
              "default": 1,
              "format": "int64",
              "type": "integer"
            }
          },
          {
            "description": "string parameter",
            "in": "header",
            "name": "Content-Type",
            "required": true,
            "schema": {
              "default": "application/json",
              "enum": ["application/vnd.api+json", "application/json"],
              "type": "string"
            }
          }
        ],
        "responses": {
          "200": {
            "content": {
              "application/json": {
                "schema": {
                  "$ref": "#/components/schemas/ElecttScig_get"
                }
              }
            },
            "description": "OK"
          },
          "403": {
            "description": "Forbidden"
          },
          "404": {
            "description": "Not Found"
          }
        },
        "tags": ["electt_scig"],
        "description": "Retrieve ElecttScig from electt_scig",
        "operationId": "RetrieveaElecttScigobject_1",
        "summary": "Retrieve a ElecttScig object"
      },
      "patch": {
        "parameters": [
          {
            "description": "integer parameter",
            "in": "path",
            "name": "ElecttScigId",
            "required": true,
            "schema": {
              "default": 1,
              "format": "int64",
              "type": "integer"
            }
          },
          {
            "description": "string parameter",
            "in": "header",
            "name": "Content-Type",
            "required": true,
            "schema": {
              "default": "application/json",
              "enum": ["application/vnd.api+json", "application/json"],
              "type": "string"
            }
          }
        ],
        "responses": {
          "201": {
            "description": "Created"
          },
          "403": {
            "description": "Forbidden"
          },
          "404": {
            "description": "Not Found"
          }
        },
        "tags": ["electt_scig"],
        "description": "Update ElecttScig attributes",
        "operationId": "UpdateElecttScig_0",
        "requestBody": {
          "content": {
            "application/json": {
              "schema": {
                "$ref": "#/components/schemas/ElecttScig_patch"
              }
            }
          },
          "description": "ElecttScig attributes",
          "required": true
        },
        "summary": "Update ElecttScig"
      }
    },
    "/gridc_power_converter": {
      "get": {
        "parameters": [
          {
            "description": "GridcPowerConverter relationships to include (csv)",
            "in": "query",
            "name": "include",
            "required": false,
            "schema": {
              "default": "",
              "format": "string",
              "type": "string"
            }
          },
          {
            "description": "GridcPowerConverter fields to include (csv)",
            "in": "query",
            "name": "fields[GridcPowerConverter]",
            "required": false,
            "schema": {
              "default": "id,name,Manufacturer,Date,cost,life,temp,mass,IGBT150,Diode150,IGBT450,Diode450,IGBT800,Diode800,IGBT1600,Diode1600",
              "format": "string",
              "type": "string"
            }
          },
          {
            "description": "Page offset",
            "in": "query",
            "name": "page[offset]",
            "required": false,
            "schema": {
              "default": 0,
              "format": "int64",
              "type": "integer"
            }
          },
          {
            "description": "Max number of items",
            "in": "query",
            "name": "page[limit]",
            "required": false,
            "schema": {
              "default": 10,
              "format": "int64",
              "type": "integer"
            }
          },
          {
            "description": "Sort order",
            "in": "query",
            "name": "sort",
            "required": false,
            "schema": {
              "default": "id,name,Manufacturer,Date,cost,life,temp,mass,IGBT150,Diode150,IGBT450,Diode450,IGBT800,Diode800,IGBT1600,Diode1600,id",
              "format": "string",
              "type": "string"
            }
          },
          {
            "description": "id attribute filter (csv)",
            "in": "query",
            "name": "filter[id]",
            "required": false,
            "schema": {
              "default": "",
              "format": "string",
              "type": "string"
            }
          },
          {
            "description": "name attribute filter (csv)",
            "in": "query",
            "name": "filter[name]",
            "required": false,
            "schema": {
              "default": "",
              "format": "string",
              "type": "string"
            }
          },
          {
            "description": "Manufacturer attribute filter (csv)",
            "in": "query",
            "name": "filter[Manufacturer]",
            "required": false,
            "schema": {
              "default": "",
              "format": "string",
              "type": "string"
            }
          },
          {
            "description": "Date attribute filter (csv)",
            "in": "query",
            "name": "filter[Date]",
            "required": false,
            "schema": {
              "default": "",
              "format": "string",
              "type": "string"
            }
          },
          {
            "description": "cost attribute filter (csv)",
            "in": "query",
            "name": "filter[cost]",
            "required": false,
            "schema": {
              "default": "",
              "format": "string",
              "type": "string"
            }
          },
          {
            "description": "life attribute filter (csv)",
            "in": "query",
            "name": "filter[life]",
            "required": false,
            "schema": {
              "default": "",
              "format": "string",
              "type": "string"
            }
          },
          {
            "description": "temp attribute filter (csv)",
            "in": "query",
            "name": "filter[temp]",
            "required": false,
            "schema": {
              "default": "",
              "format": "string",
              "type": "string"
            }
          },
          {
            "description": "mass attribute filter (csv)",
            "in": "query",
            "name": "filter[mass]",
            "required": false,
            "schema": {
              "default": "",
              "format": "string",
              "type": "string"
            }
          },
          {
            "description": "IGBT150 attribute filter (csv)",
            "in": "query",
            "name": "filter[IGBT150]",
            "required": false,
            "schema": {
              "default": "",
              "format": "string",
              "type": "string"
            }
          },
          {
            "description": "Diode150 attribute filter (csv)",
            "in": "query",
            "name": "filter[Diode150]",
            "required": false,
            "schema": {
              "default": "",
              "format": "string",
              "type": "string"
            }
          },
          {
            "description": "IGBT450 attribute filter (csv)",
            "in": "query",
            "name": "filter[IGBT450]",
            "required": false,
            "schema": {
              "default": "",
              "format": "string",
              "type": "string"
            }
          },
          {
            "description": "Diode450 attribute filter (csv)",
            "in": "query",
            "name": "filter[Diode450]",
            "required": false,
            "schema": {
              "default": "",
              "format": "string",
              "type": "string"
            }
          },
          {
            "description": "IGBT800 attribute filter (csv)",
            "in": "query",
            "name": "filter[IGBT800]",
            "required": false,
            "schema": {
              "default": "",
              "format": "string",
              "type": "string"
            }
          },
          {
            "description": "Diode800 attribute filter (csv)",
            "in": "query",
            "name": "filter[Diode800]",
            "required": false,
            "schema": {
              "default": "",
              "format": "string",
              "type": "string"
            }
          },
          {
            "description": "IGBT1600 attribute filter (csv)",
            "in": "query",
            "name": "filter[IGBT1600]",
            "required": false,
            "schema": {
              "default": "",
              "format": "string",
              "type": "string"
            }
          },
          {
            "description": "Diode1600 attribute filter (csv)",
            "in": "query",
            "name": "filter[Diode1600]",
            "required": false,
            "schema": {
              "default": "",
              "format": "string",
              "type": "string"
            }
          },
          {
            "description": "Custom GridcPowerConverter filter",
            "in": "query",
            "name": "filter",
            "required": false,
            "schema": {
              "default": "",
              "format": "string",
              "type": "string"
            }
          },
          {
            "description": "string parameter",
            "in": "header",
            "name": "Content-Type",
            "required": true,
            "schema": {
              "default": "application/json",
              "enum": ["application/vnd.api+json", "application/json"],
              "type": "string"
            }
          }
        ],
        "responses": {
          "200": {
            "content": {
              "application/json": {
                "schema": {
                  "$ref": "#/components/schemas/GridcPowerConverter_get"
                }
              }
            },
            "description": "OK"
          },
          "403": {
            "description": "Forbidden"
          },
          "404": {
            "description": "Not Found"
          }
        },
        "tags": ["gridc_power_converter"],
        "description": "Retrieve GridcPowerConverter from gridc_power_converter",
        "operationId": "RetrieveaGridcPowerConverterobject_0",
        "summary": "Retrieve a collection of GridcPowerConverter objects"
      },
      "post": {
        "parameters": [
          {
            "description": "string parameter",
            "in": "header",
            "name": "Content-Type",
            "required": true,
            "schema": {
              "default": "application/json",
              "enum": ["application/vnd.api+json", "application/json"],
              "type": "string"
            }
          }
        ],
        "responses": {
          "201": {
            "description": "Created"
          },
          "403": {
            "description": "Forbidden"
          },
          "404": {
            "description": "Not Found"
          }
        },
        "tags": ["gridc_power_converter"],
        "operationId": "CreateGridcPowerConverter_0",
        "requestBody": {
          "content": {
            "application/json": {
              "schema": {
                "$ref": "#/components/schemas/GridcPowerConverter_post"
              }
            }
          },
          "description": "GridcPowerConverter attributes",
          "required": true
        },
        "summary": "Create GridcPowerConverter"
      }
    },
    "/gridc_power_converter/{GridcPowerConverterId}": {
      "delete": {
        "parameters": [
          {
            "description": "integer parameter",
            "in": "path",
            "name": "GridcPowerConverterId",
            "required": true,
            "schema": {
              "default": 1,
              "format": "int64",
              "type": "integer"
            }
          },
          {
            "description": "string parameter",
            "in": "header",
            "name": "Content-Type",
            "required": true,
            "schema": {
              "default": "application/json",
              "enum": ["application/vnd.api+json", "application/json"],
              "type": "string"
            }
          }
        ],
        "responses": {
          "204": {
            "description": "Request fulfilled, nothing follows"
          },
          "403": {
            "description": "Forbidden"
          },
          "404": {
            "description": "Not Found"
          }
        },
        "tags": ["gridc_power_converter"],
        "operationId": "DeleteGridcPowerConverterfromgridcpowerconverter_0",
        "summary": "Delete GridcPowerConverter from gridc_power_converter"
      },
      "get": {
        "parameters": [
          {
            "description": "GridcPowerConverter relationships to include (csv)",
            "in": "query",
            "name": "include",
            "required": false,
            "schema": {
              "default": "",
              "format": "string",
              "type": "string"
            }
          },
          {
            "description": "GridcPowerConverter fields to include (csv)",
            "in": "query",
            "name": "fields[GridcPowerConverter]",
            "required": false,
            "schema": {
              "default": "id,name,Manufacturer,Date,cost,life,temp,mass,IGBT150,Diode150,IGBT450,Diode450,IGBT800,Diode800,IGBT1600,Diode1600",
              "format": "string",
              "type": "string"
            }
          },
          {
            "description": "integer parameter",
            "in": "path",
            "name": "GridcPowerConverterId",
            "required": true,
            "schema": {
              "default": 1,
              "format": "int64",
              "type": "integer"
            }
          },
          {
            "description": "string parameter",
            "in": "header",
            "name": "Content-Type",
            "required": true,
            "schema": {
              "default": "application/json",
              "enum": ["application/vnd.api+json", "application/json"],
              "type": "string"
            }
          }
        ],
        "responses": {
          "200": {
            "content": {
              "application/json": {
                "schema": {
                  "$ref": "#/components/schemas/GridcPowerConverter_get"
                }
              }
            },
            "description": "OK"
          },
          "403": {
            "description": "Forbidden"
          },
          "404": {
            "description": "Not Found"
          }
        },
        "tags": ["gridc_power_converter"],
        "description": "Retrieve GridcPowerConverter from gridc_power_converter",
        "operationId": "RetrieveaGridcPowerConverterobject_1",
        "summary": "Retrieve a GridcPowerConverter object"
      },
      "patch": {
        "parameters": [
          {
            "description": "integer parameter",
            "in": "path",
            "name": "GridcPowerConverterId",
            "required": true,
            "schema": {
              "default": 1,
              "format": "int64",
              "type": "integer"
            }
          },
          {
            "description": "string parameter",
            "in": "header",
            "name": "Content-Type",
            "required": true,
            "schema": {
              "default": "application/json",
              "enum": ["application/vnd.api+json", "application/json"],
              "type": "string"
            }
          }
        ],
        "responses": {
          "201": {
            "description": "Created"
          },
          "403": {
            "description": "Forbidden"
          },
          "404": {
            "description": "Not Found"
          }
        },
        "tags": ["gridc_power_converter"],
        "description": "Update GridcPowerConverter attributes",
        "operationId": "UpdateGridcPowerConverter_0",
        "requestBody": {
          "content": {
            "application/json": {
              "schema": {
                "$ref": "#/components/schemas/GridcPowerConverter_patch"
              }
            }
          },
          "description": "GridcPowerConverter attributes",
          "required": true
        },
        "summary": "Update GridcPowerConverter"
      }
    },
    "/mecht_air_turbine": {
      "get": {
        "parameters": [
          {
            "description": "MechtAirTurbine relationships to include (csv)",
            "in": "query",
            "name": "include",
            "required": false,
            "schema": {
              "default": "",
              "format": "string",
              "type": "string"
            }
          },
          {
            "description": "MechtAirTurbine fields to include (csv)",
            "in": "query",
            "name": "fields[MechtAirTurbine]",
            "required": false,
            "schema": {
              "default": "id,name,turb_type,Manufacturer,date,mass,cost,phi_mech,pi_mech,phi_hyd,psi_hyd,phi_eff,eta_eff,shaftD,fatigue_life",
              "format": "string",
              "type": "string"
            }
          },
          {
            "description": "Page offset",
            "in": "query",
            "name": "page[offset]",
            "required": false,
            "schema": {
              "default": 0,
              "format": "int64",
              "type": "integer"
            }
          },
          {
            "description": "Max number of items",
            "in": "query",
            "name": "page[limit]",
            "required": false,
            "schema": {
              "default": 10,
              "format": "int64",
              "type": "integer"
            }
          },
          {
            "description": "Sort order",
            "in": "query",
            "name": "sort",
            "required": false,
            "schema": {
              "default": "id,name,turb_type,Manufacturer,date,mass,cost,phi_mech,pi_mech,phi_hyd,psi_hyd,phi_eff,eta_eff,shaftD,fatigue_life,id",
              "format": "string",
              "type": "string"
            }
          },
          {
            "description": "id attribute filter (csv)",
            "in": "query",
            "name": "filter[id]",
            "required": false,
            "schema": {
              "default": "",
              "format": "string",
              "type": "string"
            }
          },
          {
            "description": "name attribute filter (csv)",
            "in": "query",
            "name": "filter[name]",
            "required": false,
            "schema": {
              "default": "",
              "format": "string",
              "type": "string"
            }
          },
          {
            "description": "turb_type attribute filter (csv)",
            "in": "query",
            "name": "filter[turb_type]",
            "required": false,
            "schema": {
              "default": "",
              "format": "string",
              "type": "string"
            }
          },
          {
            "description": "Manufacturer attribute filter (csv)",
            "in": "query",
            "name": "filter[Manufacturer]",
            "required": false,
            "schema": {
              "default": "",
              "format": "string",
              "type": "string"
            }
          },
          {
            "description": "date attribute filter (csv)",
            "in": "query",
            "name": "filter[date]",
            "required": false,
            "schema": {
              "default": "",
              "format": "string",
              "type": "string"
            }
          },
          {
            "description": "mass attribute filter (csv)",
            "in": "query",
            "name": "filter[mass]",
            "required": false,
            "schema": {
              "default": "",
              "format": "string",
              "type": "string"
            }
          },
          {
            "description": "cost attribute filter (csv)",
            "in": "query",
            "name": "filter[cost]",
            "required": false,
            "schema": {
              "default": "",
              "format": "string",
              "type": "string"
            }
          },
          {
            "description": "phi_mech attribute filter (csv)",
            "in": "query",
            "name": "filter[phi_mech]",
            "required": false,
            "schema": {
              "default": "",
              "format": "string",
              "type": "string"
            }
          },
          {
            "description": "pi_mech attribute filter (csv)",
            "in": "query",
            "name": "filter[pi_mech]",
            "required": false,
            "schema": {
              "default": "",
              "format": "string",
              "type": "string"
            }
          },
          {
            "description": "phi_hyd attribute filter (csv)",
            "in": "query",
            "name": "filter[phi_hyd]",
            "required": false,
            "schema": {
              "default": "",
              "format": "string",
              "type": "string"
            }
          },
          {
            "description": "psi_hyd attribute filter (csv)",
            "in": "query",
            "name": "filter[psi_hyd]",
            "required": false,
            "schema": {
              "default": "",
              "format": "string",
              "type": "string"
            }
          },
          {
            "description": "phi_eff attribute filter (csv)",
            "in": "query",
            "name": "filter[phi_eff]",
            "required": false,
            "schema": {
              "default": "",
              "format": "string",
              "type": "string"
            }
          },
          {
            "description": "eta_eff attribute filter (csv)",
            "in": "query",
            "name": "filter[eta_eff]",
            "required": false,
            "schema": {
              "default": "",
              "format": "string",
              "type": "string"
            }
          },
          {
            "description": "shaftD attribute filter (csv)",
            "in": "query",
            "name": "filter[shaftD]",
            "required": false,
            "schema": {
              "default": "",
              "format": "string",
              "type": "string"
            }
          },
          {
            "description": "fatigue_life attribute filter (csv)",
            "in": "query",
            "name": "filter[fatigue_life]",
            "required": false,
            "schema": {
              "default": "",
              "format": "string",
              "type": "string"
            }
          },
          {
            "description": "Custom MechtAirTurbine filter",
            "in": "query",
            "name": "filter",
            "required": false,
            "schema": {
              "default": "",
              "format": "string",
              "type": "string"
            }
          },
          {
            "description": "string parameter",
            "in": "header",
            "name": "Content-Type",
            "required": true,
            "schema": {
              "default": "application/json",
              "enum": ["application/vnd.api+json", "application/json"],
              "type": "string"
            }
          }
        ],
        "responses": {
          "200": {
            "content": {
              "application/json": {
                "schema": {
                  "$ref": "#/components/schemas/MechtAirTurbine_get"
                }
              }
            },
            "description": "OK"
          },
          "403": {
            "description": "Forbidden"
          },
          "404": {
            "description": "Not Found"
          }
        },
        "tags": ["mecht_air_turbine"],
        "description": "Retrieve MechtAirTurbine from mecht_air_turbine",
        "operationId": "RetrieveaMechtAirTurbineobject_0",
        "summary": "Retrieve a collection of MechtAirTurbine objects"
      },
      "post": {
        "parameters": [
          {
            "description": "string parameter",
            "in": "header",
            "name": "Content-Type",
            "required": true,
            "schema": {
              "default": "application/json",
              "enum": ["application/vnd.api+json", "application/json"],
              "type": "string"
            }
          }
        ],
        "responses": {
          "201": {
            "description": "Created"
          },
          "403": {
            "description": "Forbidden"
          },
          "404": {
            "description": "Not Found"
          }
        },
        "tags": ["mecht_air_turbine"],
        "operationId": "CreateMechtAirTurbine_0",
        "requestBody": {
          "content": {
            "application/json": {
              "schema": {
                "$ref": "#/components/schemas/MechtAirTurbine_post"
              }
            }
          },
          "description": "MechtAirTurbine attributes",
          "required": true
        },
        "summary": "Create MechtAirTurbine"
      }
    },
    "/mecht_air_turbine/{MechtAirTurbineId}": {
      "delete": {
        "parameters": [
          {
            "description": "integer parameter",
            "in": "path",
            "name": "MechtAirTurbineId",
            "required": true,
            "schema": {
              "default": 1,
              "format": "int64",
              "type": "integer"
            }
          },
          {
            "description": "string parameter",
            "in": "header",
            "name": "Content-Type",
            "required": true,
            "schema": {
              "default": "application/json",
              "enum": ["application/vnd.api+json", "application/json"],
              "type": "string"
            }
          }
        ],
        "responses": {
          "204": {
            "description": "Request fulfilled, nothing follows"
          },
          "403": {
            "description": "Forbidden"
          },
          "404": {
            "description": "Not Found"
          }
        },
        "tags": ["mecht_air_turbine"],
        "operationId": "DeleteMechtAirTurbinefrommechtairturbine_0",
        "summary": "Delete MechtAirTurbine from mecht_air_turbine"
      },
      "get": {
        "parameters": [
          {
            "description": "MechtAirTurbine relationships to include (csv)",
            "in": "query",
            "name": "include",
            "required": false,
            "schema": {
              "default": "",
              "format": "string",
              "type": "string"
            }
          },
          {
            "description": "MechtAirTurbine fields to include (csv)",
            "in": "query",
            "name": "fields[MechtAirTurbine]",
            "required": false,
            "schema": {
              "default": "id,name,turb_type,Manufacturer,date,mass,cost,phi_mech,pi_mech,phi_hyd,psi_hyd,phi_eff,eta_eff,shaftD,fatigue_life",
              "format": "string",
              "type": "string"
            }
          },
          {
            "description": "integer parameter",
            "in": "path",
            "name": "MechtAirTurbineId",
            "required": true,
            "schema": {
              "default": 1,
              "format": "int64",
              "type": "integer"
            }
          },
          {
            "description": "string parameter",
            "in": "header",
            "name": "Content-Type",
            "required": true,
            "schema": {
              "default": "application/json",
              "enum": ["application/vnd.api+json", "application/json"],
              "type": "string"
            }
          }
        ],
        "responses": {
          "200": {
            "content": {
              "application/json": {
                "schema": {
                  "$ref": "#/components/schemas/MechtAirTurbine_get"
                }
              }
            },
            "description": "OK"
          },
          "403": {
            "description": "Forbidden"
          },
          "404": {
            "description": "Not Found"
          }
        },
        "tags": ["mecht_air_turbine"],
        "description": "Retrieve MechtAirTurbine from mecht_air_turbine",
        "operationId": "RetrieveaMechtAirTurbineobject_1",
        "summary": "Retrieve a MechtAirTurbine object"
      },
      "patch": {
        "parameters": [
          {
            "description": "integer parameter",
            "in": "path",
            "name": "MechtAirTurbineId",
            "required": true,
            "schema": {
              "default": 1,
              "format": "int64",
              "type": "integer"
            }
          },
          {
            "description": "string parameter",
            "in": "header",
            "name": "Content-Type",
            "required": true,
            "schema": {
              "default": "application/json",
              "enum": ["application/vnd.api+json", "application/json"],
              "type": "string"
            }
          }
        ],
        "responses": {
          "201": {
            "description": "Created"
          },
          "403": {
            "description": "Forbidden"
          },
          "404": {
            "description": "Not Found"
          }
        },
        "tags": ["mecht_air_turbine"],
        "description": "Update MechtAirTurbine attributes",
        "operationId": "UpdateMechtAirTurbine_0",
        "requestBody": {
          "content": {
            "application/json": {
              "schema": {
                "$ref": "#/components/schemas/MechtAirTurbine_patch"
              }
            }
          },
          "description": "MechtAirTurbine attributes",
          "required": true
        },
        "summary": "Update MechtAirTurbine"
      }
    },
    "/mecht_gearbox": {
      "get": {
        "parameters": [
          {
            "description": "MechtGearbox relationships to include (csv)",
            "in": "query",
            "name": "include",
            "required": false,
            "schema": {
              "default": "",
              "format": "string",
              "type": "string"
            }
          },
          {
            "description": "MechtGearbox fields to include (csv)",
            "in": "query",
            "name": "fields[MechtGearbox]",
            "required": false,
            "schema": {
              "default": "id,name,Manufacturer,date,maxP_rel,power_loads_norm,eff_levels,fatigue_life,Cost,Mass,shaftD",
              "format": "string",
              "type": "string"
            }
          },
          {
            "description": "Page offset",
            "in": "query",
            "name": "page[offset]",
            "required": false,
            "schema": {
              "default": 0,
              "format": "int64",
              "type": "integer"
            }
          },
          {
            "description": "Max number of items",
            "in": "query",
            "name": "page[limit]",
            "required": false,
            "schema": {
              "default": 10,
              "format": "int64",
              "type": "integer"
            }
          },
          {
            "description": "Sort order",
            "in": "query",
            "name": "sort",
            "required": false,
            "schema": {
              "default": "id,name,Manufacturer,date,maxP_rel,power_loads_norm,eff_levels,fatigue_life,Cost,Mass,shaftD,id",
              "format": "string",
              "type": "string"
            }
          },
          {
            "description": "id attribute filter (csv)",
            "in": "query",
            "name": "filter[id]",
            "required": false,
            "schema": {
              "default": "",
              "format": "string",
              "type": "string"
            }
          },
          {
            "description": "name attribute filter (csv)",
            "in": "query",
            "name": "filter[name]",
            "required": false,
            "schema": {
              "default": "",
              "format": "string",
              "type": "string"
            }
          },
          {
            "description": "Manufacturer attribute filter (csv)",
            "in": "query",
            "name": "filter[Manufacturer]",
            "required": false,
            "schema": {
              "default": "",
              "format": "string",
              "type": "string"
            }
          },
          {
            "description": "date attribute filter (csv)",
            "in": "query",
            "name": "filter[date]",
            "required": false,
            "schema": {
              "default": "",
              "format": "string",
              "type": "string"
            }
          },
          {
            "description": "maxP_rel attribute filter (csv)",
            "in": "query",
            "name": "filter[maxP_rel]",
            "required": false,
            "schema": {
              "default": "",
              "format": "string",
              "type": "string"
            }
          },
          {
            "description": "power_loads_norm attribute filter (csv)",
            "in": "query",
            "name": "filter[power_loads_norm]",
            "required": false,
            "schema": {
              "default": "",
              "format": "string",
              "type": "string"
            }
          },
          {
            "description": "eff_levels attribute filter (csv)",
            "in": "query",
            "name": "filter[eff_levels]",
            "required": false,
            "schema": {
              "default": "",
              "format": "string",
              "type": "string"
            }
          },
          {
            "description": "fatigue_life attribute filter (csv)",
            "in": "query",
            "name": "filter[fatigue_life]",
            "required": false,
            "schema": {
              "default": "",
              "format": "string",
              "type": "string"
            }
          },
          {
            "description": "Cost attribute filter (csv)",
            "in": "query",
            "name": "filter[Cost]",
            "required": false,
            "schema": {
              "default": "",
              "format": "string",
              "type": "string"
            }
          },
          {
            "description": "Mass attribute filter (csv)",
            "in": "query",
            "name": "filter[Mass]",
            "required": false,
            "schema": {
              "default": "",
              "format": "string",
              "type": "string"
            }
          },
          {
            "description": "shaftD attribute filter (csv)",
            "in": "query",
            "name": "filter[shaftD]",
            "required": false,
            "schema": {
              "default": "",
              "format": "string",
              "type": "string"
            }
          },
          {
            "description": "Custom MechtGearbox filter",
            "in": "query",
            "name": "filter",
            "required": false,
            "schema": {
              "default": "",
              "format": "string",
              "type": "string"
            }
          },
          {
            "description": "string parameter",
            "in": "header",
            "name": "Content-Type",
            "required": true,
            "schema": {
              "default": "application/json",
              "enum": ["application/vnd.api+json", "application/json"],
              "type": "string"
            }
          }
        ],
        "responses": {
          "200": {
            "content": {
              "application/json": {
                "schema": {
                  "$ref": "#/components/schemas/MechtGearbox_get"
                }
              }
            },
            "description": "OK"
          },
          "403": {
            "description": "Forbidden"
          },
          "404": {
            "description": "Not Found"
          }
        },
        "tags": ["mecht_gearbox"],
        "description": "Retrieve MechtGearbox from mecht_gearbox",
        "operationId": "RetrieveaMechtGearboxobject_0",
        "summary": "Retrieve a collection of MechtGearbox objects"
      },
      "post": {
        "parameters": [
          {
            "description": "string parameter",
            "in": "header",
            "name": "Content-Type",
            "required": true,
            "schema": {
              "default": "application/json",
              "enum": ["application/vnd.api+json", "application/json"],
              "type": "string"
            }
          }
        ],
        "responses": {
          "201": {
            "description": "Created"
          },
          "403": {
            "description": "Forbidden"
          },
          "404": {
            "description": "Not Found"
          }
        },
        "tags": ["mecht_gearbox"],
        "operationId": "CreateMechtGearbox_0",
        "requestBody": {
          "content": {
            "application/json": {
              "schema": {
                "$ref": "#/components/schemas/MechtGearbox_post"
              }
            }
          },
          "description": "MechtGearbox attributes",
          "required": true
        },
        "summary": "Create MechtGearbox"
      }
    },
    "/mecht_gearbox/{MechtGearboxId}": {
      "delete": {
        "parameters": [
          {
            "description": "integer parameter",
            "in": "path",
            "name": "MechtGearboxId",
            "required": true,
            "schema": {
              "default": 1,
              "format": "int64",
              "type": "integer"
            }
          },
          {
            "description": "string parameter",
            "in": "header",
            "name": "Content-Type",
            "required": true,
            "schema": {
              "default": "application/json",
              "enum": ["application/vnd.api+json", "application/json"],
              "type": "string"
            }
          }
        ],
        "responses": {
          "204": {
            "description": "Request fulfilled, nothing follows"
          },
          "403": {
            "description": "Forbidden"
          },
          "404": {
            "description": "Not Found"
          }
        },
        "tags": ["mecht_gearbox"],
        "operationId": "DeleteMechtGearboxfrommechtgearbox_0",
        "summary": "Delete MechtGearbox from mecht_gearbox"
      },
      "get": {
        "parameters": [
          {
            "description": "MechtGearbox relationships to include (csv)",
            "in": "query",
            "name": "include",
            "required": false,
            "schema": {
              "default": "",
              "format": "string",
              "type": "string"
            }
          },
          {
            "description": "MechtGearbox fields to include (csv)",
            "in": "query",
            "name": "fields[MechtGearbox]",
            "required": false,
            "schema": {
              "default": "id,name,Manufacturer,date,maxP_rel,power_loads_norm,eff_levels,fatigue_life,Cost,Mass,shaftD",
              "format": "string",
              "type": "string"
            }
          },
          {
            "description": "integer parameter",
            "in": "path",
            "name": "MechtGearboxId",
            "required": true,
            "schema": {
              "default": 1,
              "format": "int64",
              "type": "integer"
            }
          },
          {
            "description": "string parameter",
            "in": "header",
            "name": "Content-Type",
            "required": true,
            "schema": {
              "default": "application/json",
              "enum": ["application/vnd.api+json", "application/json"],
              "type": "string"
            }
          }
        ],
        "responses": {
          "200": {
            "content": {
              "application/json": {
                "schema": {
                  "$ref": "#/components/schemas/MechtGearbox_get"
                }
              }
            },
            "description": "OK"
          },
          "403": {
            "description": "Forbidden"
          },
          "404": {
            "description": "Not Found"
          }
        },
        "tags": ["mecht_gearbox"],
        "description": "Retrieve MechtGearbox from mecht_gearbox",
        "operationId": "RetrieveaMechtGearboxobject_1",
        "summary": "Retrieve a MechtGearbox object"
      },
      "patch": {
        "parameters": [
          {
            "description": "integer parameter",
            "in": "path",
            "name": "MechtGearboxId",
            "required": true,
            "schema": {
              "default": 1,
              "format": "int64",
              "type": "integer"
            }
          },
          {
            "description": "string parameter",
            "in": "header",
            "name": "Content-Type",
            "required": true,
            "schema": {
              "default": "application/json",
              "enum": ["application/vnd.api+json", "application/json"],
              "type": "string"
            }
          }
        ],
        "responses": {
          "201": {
            "description": "Created"
          },
          "403": {
            "description": "Forbidden"
          },
          "404": {
            "description": "Not Found"
          }
        },
        "tags": ["mecht_gearbox"],
        "description": "Update MechtGearbox attributes",
        "operationId": "UpdateMechtGearbox_0",
        "requestBody": {
          "content": {
            "application/json": {
              "schema": {
                "$ref": "#/components/schemas/MechtGearbox_patch"
              }
            }
          },
          "description": "MechtGearbox attributes",
          "required": true
        },
        "summary": "Update MechtGearbox"
      }
    },
    "/mecht_hydraulic": {
      "get": {
        "parameters": [
          {
            "description": "MechtHydraulic relationships to include (csv)",
            "in": "query",
            "name": "include",
            "required": false,
            "schema": {
              "default": "",
              "format": "string",
              "type": "string"
            }
          },
          {
            "description": "MechtHydraulic fields to include (csv)",
            "in": "query",
            "name": "fields[MechtHydraulic]",
            "required": false,
            "schema": {
              "default": "id,name,Manufacturer,date,Bulk_Mod,Oil,Loss_coeffs,shaftD,mass,fatigue_life,cost,maxflow_rel",
              "format": "string",
              "type": "string"
            }
          },
          {
            "description": "Page offset",
            "in": "query",
            "name": "page[offset]",
            "required": false,
            "schema": {
              "default": 0,
              "format": "int64",
              "type": "integer"
            }
          },
          {
            "description": "Max number of items",
            "in": "query",
            "name": "page[limit]",
            "required": false,
            "schema": {
              "default": 10,
              "format": "int64",
              "type": "integer"
            }
          },
          {
            "description": "Sort order",
            "in": "query",
            "name": "sort",
            "required": false,
            "schema": {
              "default": "id,name,Manufacturer,date,Bulk_Mod,Oil,Loss_coeffs,shaftD,mass,fatigue_life,cost,maxflow_rel,id",
              "format": "string",
              "type": "string"
            }
          },
          {
            "description": "id attribute filter (csv)",
            "in": "query",
            "name": "filter[id]",
            "required": false,
            "schema": {
              "default": "",
              "format": "string",
              "type": "string"
            }
          },
          {
            "description": "name attribute filter (csv)",
            "in": "query",
            "name": "filter[name]",
            "required": false,
            "schema": {
              "default": "",
              "format": "string",
              "type": "string"
            }
          },
          {
            "description": "Manufacturer attribute filter (csv)",
            "in": "query",
            "name": "filter[Manufacturer]",
            "required": false,
            "schema": {
              "default": "",
              "format": "string",
              "type": "string"
            }
          },
          {
            "description": "date attribute filter (csv)",
            "in": "query",
            "name": "filter[date]",
            "required": false,
            "schema": {
              "default": "",
              "format": "string",
              "type": "string"
            }
          },
          {
            "description": "Bulk_Mod attribute filter (csv)",
            "in": "query",
            "name": "filter[Bulk_Mod]",
            "required": false,
            "schema": {
              "default": "",
              "format": "string",
              "type": "string"
            }
          },
          {
            "description": "Oil attribute filter (csv)",
            "in": "query",
            "name": "filter[Oil]",
            "required": false,
            "schema": {
              "default": "",
              "format": "string",
              "type": "string"
            }
          },
          {
            "description": "Loss_coeffs attribute filter (csv)",
            "in": "query",
            "name": "filter[Loss_coeffs]",
            "required": false,
            "schema": {
              "default": "",
              "format": "string",
              "type": "string"
            }
          },
          {
            "description": "shaftD attribute filter (csv)",
            "in": "query",
            "name": "filter[shaftD]",
            "required": false,
            "schema": {
              "default": "",
              "format": "string",
              "type": "string"
            }
          },
          {
            "description": "mass attribute filter (csv)",
            "in": "query",
            "name": "filter[mass]",
            "required": false,
            "schema": {
              "default": "",
              "format": "string",
              "type": "string"
            }
          },
          {
            "description": "fatigue_life attribute filter (csv)",
            "in": "query",
            "name": "filter[fatigue_life]",
            "required": false,
            "schema": {
              "default": "",
              "format": "string",
              "type": "string"
            }
          },
          {
            "description": "cost attribute filter (csv)",
            "in": "query",
            "name": "filter[cost]",
            "required": false,
            "schema": {
              "default": "",
              "format": "string",
              "type": "string"
            }
          },
          {
            "description": "maxflow_rel attribute filter (csv)",
            "in": "query",
            "name": "filter[maxflow_rel]",
            "required": false,
            "schema": {
              "default": "",
              "format": "string",
              "type": "string"
            }
          },
          {
            "description": "Custom MechtHydraulic filter",
            "in": "query",
            "name": "filter",
            "required": false,
            "schema": {
              "default": "",
              "format": "string",
              "type": "string"
            }
          },
          {
            "description": "string parameter",
            "in": "header",
            "name": "Content-Type",
            "required": true,
            "schema": {
              "default": "application/json",
              "enum": ["application/vnd.api+json", "application/json"],
              "type": "string"
            }
          }
        ],
        "responses": {
          "200": {
            "content": {
              "application/json": {
                "schema": {
                  "$ref": "#/components/schemas/MechtHydraulic_get"
                }
              }
            },
            "description": "OK"
          },
          "403": {
            "description": "Forbidden"
          },
          "404": {
            "description": "Not Found"
          }
        },
        "tags": ["mecht_hydraulic"],
        "description": "Retrieve MechtHydraulic from mecht_hydraulic",
        "operationId": "RetrieveaMechtHydraulicobject_0",
        "summary": "Retrieve a collection of MechtHydraulic objects"
      },
      "post": {
        "parameters": [
          {
            "description": "string parameter",
            "in": "header",
            "name": "Content-Type",
            "required": true,
            "schema": {
              "default": "application/json",
              "enum": ["application/vnd.api+json", "application/json"],
              "type": "string"
            }
          }
        ],
        "responses": {
          "201": {
            "description": "Created"
          },
          "403": {
            "description": "Forbidden"
          },
          "404": {
            "description": "Not Found"
          }
        },
        "tags": ["mecht_hydraulic"],
        "operationId": "CreateMechtHydraulic_0",
        "requestBody": {
          "content": {
            "application/json": {
              "schema": {
                "$ref": "#/components/schemas/MechtHydraulic_post"
              }
            }
          },
          "description": "MechtHydraulic attributes",
          "required": true
        },
        "summary": "Create MechtHydraulic"
      }
    },
    "/mecht_hydraulic/{MechtHydraulicId}": {
      "delete": {
        "parameters": [
          {
            "description": "integer parameter",
            "in": "path",
            "name": "MechtHydraulicId",
            "required": true,
            "schema": {
              "default": 1,
              "format": "int64",
              "type": "integer"
            }
          },
          {
            "description": "string parameter",
            "in": "header",
            "name": "Content-Type",
            "required": true,
            "schema": {
              "default": "application/json",
              "enum": ["application/vnd.api+json", "application/json"],
              "type": "string"
            }
          }
        ],
        "responses": {
          "204": {
            "description": "Request fulfilled, nothing follows"
          },
          "403": {
            "description": "Forbidden"
          },
          "404": {
            "description": "Not Found"
          }
        },
        "tags": ["mecht_hydraulic"],
        "operationId": "DeleteMechtHydraulicfrommechthydraulic_0",
        "summary": "Delete MechtHydraulic from mecht_hydraulic"
      },
      "get": {
        "parameters": [
          {
            "description": "MechtHydraulic relationships to include (csv)",
            "in": "query",
            "name": "include",
            "required": false,
            "schema": {
              "default": "",
              "format": "string",
              "type": "string"
            }
          },
          {
            "description": "MechtHydraulic fields to include (csv)",
            "in": "query",
            "name": "fields[MechtHydraulic]",
            "required": false,
            "schema": {
              "default": "id,name,Manufacturer,date,Bulk_Mod,Oil,Loss_coeffs,shaftD,mass,fatigue_life,cost,maxflow_rel",
              "format": "string",
              "type": "string"
            }
          },
          {
            "description": "integer parameter",
            "in": "path",
            "name": "MechtHydraulicId",
            "required": true,
            "schema": {
              "default": 1,
              "format": "int64",
              "type": "integer"
            }
          },
          {
            "description": "string parameter",
            "in": "header",
            "name": "Content-Type",
            "required": true,
            "schema": {
              "default": "application/json",
              "enum": ["application/vnd.api+json", "application/json"],
              "type": "string"
            }
          }
        ],
        "responses": {
          "200": {
            "content": {
              "application/json": {
                "schema": {
                  "$ref": "#/components/schemas/MechtHydraulic_get"
                }
              }
            },
            "description": "OK"
          },
          "403": {
            "description": "Forbidden"
          },
          "404": {
            "description": "Not Found"
          }
        },
        "tags": ["mecht_hydraulic"],
        "description": "Retrieve MechtHydraulic from mecht_hydraulic",
        "operationId": "RetrieveaMechtHydraulicobject_1",
        "summary": "Retrieve a MechtHydraulic object"
      },
      "patch": {
        "parameters": [
          {
            "description": "integer parameter",
            "in": "path",
            "name": "MechtHydraulicId",
            "required": true,
            "schema": {
              "default": 1,
              "format": "int64",
              "type": "integer"
            }
          },
          {
            "description": "string parameter",
            "in": "header",
            "name": "Content-Type",
            "required": true,
            "schema": {
              "default": "application/json",
              "enum": ["application/vnd.api+json", "application/json"],
              "type": "string"
            }
          }
        ],
        "responses": {
          "201": {
            "description": "Created"
          },
          "403": {
            "description": "Forbidden"
          },
          "404": {
            "description": "Not Found"
          }
        },
        "tags": ["mecht_hydraulic"],
        "description": "Update MechtHydraulic attributes",
        "operationId": "UpdateMechtHydraulic_0",
        "requestBody": {
          "content": {
            "application/json": {
              "schema": {
                "$ref": "#/components/schemas/MechtHydraulic_patch"
              }
            }
          },
          "description": "MechtHydraulic attributes",
          "required": true
        },
        "summary": "Update MechtHydraulic"
      }
    }
  },
  "components": {
    "schemas": {
      "Control_get": {
        "properties": {
          "adim_vel": {
            "type": "string"
          },
          "control_type": {
            "type": "string"
          },
          "date": {
            "type": "string"
          },
          "id": {
            "type": "integer"
          },
          "load_pdf": {
            "type": "string"
          },
          "load_range_pdf": {
            "type": "string"
          },
          "name": {
            "type": "string"
          },
          "power_pdf": {
            "type": "string"
          }
        },
        "type": "object"
      },
      "Control_patch": {
        "properties": {
          "data": {
            "example": {
              "attributes": {
                "adim_vel": "",
                "control_type": "",
                "date": "2021-07-26 21:42:49.232466",
                "load_pdf": "",
                "load_range_pdf": "",
                "name": "",
                "power_pdf": ""
              },
              "id": 1,
              "type": "Control"
            },
            "type": "object"
          }
        },
        "type": "object"
      },
      "Control_post": {
        "properties": {
          "data": {
            "example": {
              "attributes": {
                "adim_vel": "",
                "control_type": "",
                "date": "2021-07-26 21:42:49.225045",
                "load_pdf": "",
                "load_range_pdf": "",
                "name": "",
                "power_pdf": ""
              },
              "type": "Control"
            },
            "type": "object"
          }
        },
        "type": "object"
      },
      "ElecttScig_get": {
        "properties": {
          "B": {
            "type": "number"
          },
          "Date": {
            "type": "string"
          },
          "Gen_mass": {
            "type": "string"
          },
          "I_nom": {
            "type": "string"
          },
          "Life": {
            "type": "string"
          },
          "Manufacturer": {
            "type": "string"
          },
          "Res": {
            "type": "string"
          },
          "Type": {
            "type": "string"
          },
          "cost": {
            "type": "string"
          },
          "id": {
            "type": "integer"
          },
          "name": {
            "type": "string"
          },
          "phi_cos": {
            "type": "string"
          },
          "shaft_diam": {
            "type": "string"
          },
          "sigma_e": {
            "type": "number"
          },
          "sigma_h": {
            "type": "number"
          },
          "thick_max": {
            "type": "number"
          },
          "wind_mass_fraction": {
            "type": "number"
          }
        },
        "type": "object"
      },
      "ElecttScig_patch": {
        "properties": {
          "data": {
            "example": {
              "attributes": {
                "B": 0,
                "Date": "2021-07-26 21:42:49.257064",
                "Gen_mass": "",
                "I_nom": "",
                "Life": "",
                "Manufacturer": "",
                "Res": "",
                "Type": "",
                "cost": "",
                "name": "",
                "phi_cos": "",
                "shaft_diam": "",
                "sigma_e": 0,
                "sigma_h": 0,
                "thick_max": 0,
                "wind_mass_fraction": 0
              },
              "id": 1,
              "type": "ElecttScig"
            },
            "type": "object"
          }
        },
        "type": "object"
      },
      "ElecttScig_post": {
        "properties": {
          "data": {
            "example": {
              "attributes": {
                "B": 0,
                "Date": "2021-07-26 21:42:49.248930",
                "Gen_mass": "",
                "I_nom": "",
                "Life": "",
                "Manufacturer": "",
                "Res": "",
                "Type": "",
                "cost": "",
                "name": "",
                "phi_cos": "",
                "shaft_diam": "",
                "sigma_e": 0,
                "sigma_h": 0,
                "thick_max": 0,
                "wind_mass_fraction": 0
              },
              "type": "ElecttScig"
            },
            "type": "object"
          }
        },
        "type": "object"
      },
      "GridcPowerConverter_get": {
        "properties": {
          "Date": {
            "type": "string"
          },
          "Diode150": {
            "type": "string"
          },
          "Diode1600": {
            "type": "string"
          },
          "Diode450": {
            "type": "string"
          },
          "Diode800": {
            "type": "string"
          },
          "IGBT150": {
            "type": "string"
          },
          "IGBT1600": {
            "type": "string"
          },
          "IGBT450": {
            "type": "string"
          },
          "IGBT800": {
            "type": "string"
          },
          "Manufacturer": {
            "type": "number"
          },
          "cost": {
            "type": "number"
          },
          "id": {
            "type": "integer"
          },
          "life": {
            "type": "string"
          },
          "mass": {
            "type": "string"
          },
          "name": {
            "type": "string"
          },
          "temp": {
            "type": "string"
          }
        },
        "type": "object"
      },
      "GridcPowerConverter_patch": {
        "properties": {
          "data": {
            "example": {
              "attributes": {
                "Date": "2021-07-26 21:42:49.282407",
                "Diode150": "",
                "Diode1600": "",
                "Diode450": "",
                "Diode800": "",
                "IGBT150": "",
                "IGBT1600": "",
                "IGBT450": "",
                "IGBT800": "",
                "Manufacturer": 0,
                "cost": 0,
                "life": "",
                "mass": "",
                "name": "",
                "temp": ""
              },
              "id": 1,
              "type": "GridcPowerConverter"
            },
            "type": "object"
          }
        },
        "type": "object"
      },
      "GridcPowerConverter_post": {
        "properties": {
          "data": {
            "example": {
              "attributes": {
                "Date": "2021-07-26 21:42:49.274411",
                "Diode150": "",
                "Diode1600": "",
                "Diode450": "",
                "Diode800": "",
                "IGBT150": "",
                "IGBT1600": "",
                "IGBT450": "",
                "IGBT800": "",
                "Manufacturer": 0,
                "cost": 0,
                "life": "",
                "mass": "",
                "name": "",
                "temp": ""
              },
              "type": "GridcPowerConverter"
            },
            "type": "object"
          }
        },
        "type": "object"
      },
      "MechtAirTurbine_get": {
        "properties": {
          "Manufacturer": {
            "type": "string"
          },
          "cost": {
            "type": "string"
          },
          "date": {
            "type": "string"
          },
          "eta_eff": {
            "type": "string"
          },
          "fatigue_life": {
            "type": "string"
          },
          "id": {
            "type": "integer"
          },
          "mass": {
            "type": "integer"
          },
          "name": {
            "type": "string"
          },
          "phi_eff": {
            "type": "string"
          },
          "phi_hyd": {
            "type": "string"
          },
          "phi_mech": {
            "type": "string"
          },
          "pi_mech": {
            "type": "string"
          },
          "psi_hyd": {
            "type": "string"
          },
          "shaftD": {
            "type": "number"
          },
          "turb_type": {
            "type": "string"
          }
        },
        "type": "object"
      },
      "MechtAirTurbine_patch": {
        "properties": {
          "data": {
            "example": {
              "attributes": {
                "Manufacturer": "",
                "cost": "",
                "date": "2021-07-26 21:42:49.306576",
                "eta_eff": "",
                "fatigue_life": "",
                "mass": 0,
                "name": "",
                "phi_eff": "",
                "phi_hyd": "",
                "phi_mech": "",
                "pi_mech": "",
                "psi_hyd": "",
                "shaftD": 0,
                "turb_type": ""
              },
              "id": 1,
              "type": "MechtAirTurbine"
            },
            "type": "object"
          }
        },
        "type": "object"
      },
      "MechtAirTurbine_post": {
        "properties": {
          "data": {
            "example": {
              "attributes": {
                "Manufacturer": "",
                "cost": "",
                "date": "2021-07-26 21:42:49.299006",
                "eta_eff": "",
                "fatigue_life": "",
                "mass": 0,
                "name": "",
                "phi_eff": "",
                "phi_hyd": "",
                "phi_mech": "",
                "pi_mech": "",
                "psi_hyd": "",
                "shaftD": 0,
                "turb_type": ""
              },
              "type": "MechtAirTurbine"
            },
            "type": "object"
          }
        },
        "type": "object"
      },
      "MechtGearbox_get": {
        "properties": {
          "Cost": {
            "type": "number"
          },
          "Manufacturer": {
            "type": "string"
          },
          "Mass": {
            "type": "string"
          },
          "date": {
            "type": "string"
          },
          "eff_levels": {
            "type": "string"
          },
          "fatigue_life": {
            "type": "string"
          },
          "id": {
            "type": "integer"
          },
          "maxP_rel": {
            "type": "integer"
          },
          "name": {
            "type": "string"
          },
          "power_loads_norm": {
            "type": "string"
          },
          "shaftD": {
            "type": "number"
          }
        },
        "type": "object"
      },
      "MechtGearbox_patch": {
        "properties": {
          "data": {
            "example": {
              "attributes": {
                "Cost": 0,
                "Manufacturer": "",
                "Mass": "",
                "date": "2021-07-26 21:42:49.328959",
                "eff_levels": "",
                "fatigue_life": "",
                "maxP_rel": 0,
                "name": "",
                "power_loads_norm": "",
                "shaftD": 0
              },
              "id": 1,
              "type": "MechtGearbox"
            },
            "type": "object"
          }
        },
        "type": "object"
      },
      "MechtGearbox_post": {
        "properties": {
          "data": {
            "example": {
              "attributes": {
                "Cost": 0,
                "Manufacturer": "",
                "Mass": "",
                "date": "2021-07-26 21:42:49.322044",
                "eff_levels": "",
                "fatigue_life": "",
                "maxP_rel": 0,
                "name": "",
                "power_loads_norm": "",
                "shaftD": 0
              },
              "type": "MechtGearbox"
            },
            "type": "object"
          }
        },
        "type": "object"
      },
      "MechtHydraulic_get": {
        "properties": {
          "Bulk_Mod": {
            "type": "integer"
          },
          "Loss_coeffs": {
            "type": "string"
          },
          "Manufacturer": {
            "type": "string"
          },
          "Oil": {
            "type": "string"
          },
          "cost": {
            "type": "string"
          },
          "date": {
            "type": "string"
          },
          "fatigue_life": {
            "type": "string"
          },
          "id": {
            "type": "integer"
          },
          "mass": {
            "type": "integer"
          },
          "maxflow_rel": {
            "type": "number"
          },
          "name": {
            "type": "string"
          },
          "shaftD": {
            "type": "integer"
          }
        },
        "type": "object"
      },
      "MechtHydraulic_patch": {
        "properties": {
          "data": {
            "example": {
              "attributes": {
                "Bulk_Mod": 0,
                "Loss_coeffs": "",
                "Manufacturer": "",
                "Oil": "",
                "cost": "",
                "date": "2021-07-26 21:42:49.351126",
                "fatigue_life": "",
                "mass": 0,
                "maxflow_rel": 0,
                "name": "",
                "shaftD": 0
              },
              "id": 1,
              "type": "MechtHydraulic"
            },
            "type": "object"
          }
        },
        "type": "object"
      },
      "MechtHydraulic_post": {
        "properties": {
          "data": {
            "example": {
              "attributes": {
                "Bulk_Mod": 0,
                "Loss_coeffs": "",
                "Manufacturer": "",
                "Oil": "",
                "cost": "",
                "date": "2021-07-26 21:42:49.344080",
                "fatigue_life": "",
                "mass": 0,
                "maxflow_rel": 0,
                "name": "",
                "shaftD": 0
              },
              "type": "MechtHydraulic"
            },
            "type": "object"
          }
        },
        "type": "object"
      }
    }
  },
  "tags": [
    {
      "name": "control"
    },
    {
      "name": "electt_scig"
    },
    {
      "name": "gridc_power_converter"
    },
    {
      "name": "mecht_air_turbine"
    },
    {
      "name": "mecht_gearbox"
    },
    {
      "name": "mecht_hydraulic"
    }
  ]
}
