{
  "swagger": "2.0",
  "info": {
    "title": "DTOP catalog  'dtop-catalog-mooring_lines_and_anchors'  OpenAPI ",
    "description": "",
    "termsOfService": "https://www.dtoceanplus.eu/",
    "version": "0.0.1",
    "contact": {
      "name": "OpenCasCade DTOceanPlus team",
      "email": "dtoceanplus.integration@opencascade.com"
    }
  },
  "host": "0.0.0.0:7777",
  "basePath": "/api",
  "consumes": [
    "application/json"
  ],
  "produces": [
    "application/json"
  ],
  "paths": {
    "/drag_anchor": {
      "get": {
        "tags": [
          "drag_anchor"
        ],
        "summary": "Retrieve a collection of DragAnchor objects",
        "parameters": [
          {
            "default": "",
            "type": "string",
            "name": "include",
            "in": "query",
            "format": "string",
            "required": false,
            "description": "DragAnchor relationships to include (csv)"
          },
          {
            "default": "id,catalogue_id,m_soft_soil,b_soft_soil,m_mid_soil,b_mid_soil,m_stiff_soil_sand,b_stiff_soil_sand,m_A,b_A,m_B,b_B,m_EF,b_EF,Rel_soft_soil,Rel_mid_soil,Rel_stiff_soil",
            "type": "string",
            "name": "fields[DragAnchor]",
            "in": "query",
            "format": "string",
            "required": false,
            "description": "DragAnchor fields to include (csv)"
          },
          {
            "default": 0,
            "type": "integer",
            "name": "page[offset]",
            "in": "query",
            "format": "int64",
            "required": false,
            "description": "Page offset"
          },
          {
            "default": 10,
            "type": "integer",
            "name": "page[limit]",
            "in": "query",
            "format": "int64",
            "required": false,
            "description": "Max number of items"
          },
          {
            "default": "id,catalogue_id,m_soft_soil,b_soft_soil,m_mid_soil,b_mid_soil,m_stiff_soil_sand,b_stiff_soil_sand,m_A,b_A,m_B,b_B,m_EF,b_EF,Rel_soft_soil,Rel_mid_soil,Rel_stiff_soil,id",
            "type": "string",
            "name": "sort",
            "in": "query",
            "format": "string",
            "required": false,
            "description": "Sort order"
          },
          {
            "default": "",
            "type": "string",
            "name": "filter[id]",
            "in": "query",
            "format": "string",
            "required": false,
            "description": "id attribute filter (csv)"
          },
          {
            "default": "",
            "type": "string",
            "name": "filter[catalogue_id]",
            "in": "query",
            "format": "string",
            "required": false,
            "description": "catalogue_id attribute filter (csv)"
          },
          {
            "default": "",
            "type": "string",
            "name": "filter[m_soft_soil]",
            "in": "query",
            "format": "string",
            "required": false,
            "description": "m_soft_soil attribute filter (csv)"
          },
          {
            "default": "",
            "type": "string",
            "name": "filter[b_soft_soil]",
            "in": "query",
            "format": "string",
            "required": false,
            "description": "b_soft_soil attribute filter (csv)"
          },
          {
            "default": "",
            "type": "string",
            "name": "filter[m_mid_soil]",
            "in": "query",
            "format": "string",
            "required": false,
            "description": "m_mid_soil attribute filter (csv)"
          },
          {
            "default": "",
            "type": "string",
            "name": "filter[b_mid_soil]",
            "in": "query",
            "format": "string",
            "required": false,
            "description": "b_mid_soil attribute filter (csv)"
          },
          {
            "default": "",
            "type": "string",
            "name": "filter[m_stiff_soil_sand]",
            "in": "query",
            "format": "string",
            "required": false,
            "description": "m_stiff_soil_sand attribute filter (csv)"
          },
          {
            "default": "",
            "type": "string",
            "name": "filter[b_stiff_soil_sand]",
            "in": "query",
            "format": "string",
            "required": false,
            "description": "b_stiff_soil_sand attribute filter (csv)"
          },
          {
            "default": "",
            "type": "string",
            "name": "filter[m_A]",
            "in": "query",
            "format": "string",
            "required": false,
            "description": "m_A attribute filter (csv)"
          },
          {
            "default": "",
            "type": "string",
            "name": "filter[b_A]",
            "in": "query",
            "format": "string",
            "required": false,
            "description": "b_A attribute filter (csv)"
          },
          {
            "default": "",
            "type": "string",
            "name": "filter[m_B]",
            "in": "query",
            "format": "string",
            "required": false,
            "description": "m_B attribute filter (csv)"
          },
          {
            "default": "",
            "type": "string",
            "name": "filter[b_B]",
            "in": "query",
            "format": "string",
            "required": false,
            "description": "b_B attribute filter (csv)"
          },
          {
            "default": "",
            "type": "string",
            "name": "filter[m_EF]",
            "in": "query",
            "format": "string",
            "required": false,
            "description": "m_EF attribute filter (csv)"
          },
          {
            "default": "",
            "type": "string",
            "name": "filter[b_EF]",
            "in": "query",
            "format": "string",
            "required": false,
            "description": "b_EF attribute filter (csv)"
          },
          {
            "default": "",
            "type": "string",
            "name": "filter[Rel_soft_soil]",
            "in": "query",
            "format": "string",
            "required": false,
            "description": "Rel_soft_soil attribute filter (csv)"
          },
          {
            "default": "",
            "type": "string",
            "name": "filter[Rel_mid_soil]",
            "in": "query",
            "format": "string",
            "required": false,
            "description": "Rel_mid_soil attribute filter (csv)"
          },
          {
            "default": "",
            "type": "string",
            "name": "filter[Rel_stiff_soil]",
            "in": "query",
            "format": "string",
            "required": false,
            "description": "Rel_stiff_soil attribute filter (csv)"
          },
          {
            "default": "",
            "type": "string",
            "name": "filter",
            "in": "query",
            "format": "string",
            "required": false,
            "description": "Custom DragAnchor filter"
          },
          {
            "name": "Content-Type",
            "in": "header",
            "type": "string",
            "default": "application/json",
            "enum": [
              "application/vnd.api+json",
              "application/json"
            ],
            "required": true,
            "description": "string parameter"
          }
        ],
        "responses": {
          "200": {
            "description": "OK",
            "schema": {
              "$ref": "#/definitions/DragAnchor_get"
            }
          },
          "403": {
            "description": "Forbidden"
          },
          "404": {
            "description": "Not Found"
          }
        },
        "produces": [
          "application/json"
        ],
        "description": "Retrieve DragAnchor from drag_anchor",
        "operationId": "RetrieveaDragAnchorobject_0"
      },
      "post": {
        "tags": [
          "drag_anchor"
        ],
        "summary": "Create DragAnchor",
        "parameters": [
          {
            "name": "Content-Type",
            "in": "header",
            "type": "string",
            "default": "application/json",
            "enum": [
              "application/vnd.api+json",
              "application/json"
            ],
            "required": true,
            "description": "string parameter"
          },
          {
            "name": "POST body",
            "in": "body",
            "description": "DragAnchor attributes",
            "schema": {
              "$ref": "#/definitions/DragAnchor_post"
            },
            "required": true
          }
        ],
        "responses": {
          "201": {
            "description": "Created"
          },
          "403": {
            "description": "Forbidden"
          },
          "404": {
            "description": "Not Found"
          }
        },
        "produces": [
          "application/json"
        ],
        "operationId": "CreateDragAnchor_0"
      }
    },
    "/drag_anchor/{DragAnchorId}": {
      "get": {
        "tags": [
          "drag_anchor"
        ],
        "summary": "Retrieve a DragAnchor object",
        "parameters": [
          {
            "default": "",
            "type": "string",
            "name": "include",
            "in": "query",
            "format": "string",
            "required": false,
            "description": "DragAnchor relationships to include (csv)"
          },
          {
            "default": "id,catalogue_id,m_soft_soil,b_soft_soil,m_mid_soil,b_mid_soil,m_stiff_soil_sand,b_stiff_soil_sand,m_A,b_A,m_B,b_B,m_EF,b_EF,Rel_soft_soil,Rel_mid_soil,Rel_stiff_soil",
            "type": "string",
            "name": "fields[DragAnchor]",
            "in": "query",
            "format": "string",
            "required": false,
            "description": "DragAnchor fields to include (csv)"
          },
          {
            "name": "DragAnchorId",
            "in": "path",
            "type": "integer",
            "format": "int64",
            "default": 1,
            "required": true,
            "description": "integer parameter"
          },
          {
            "name": "Content-Type",
            "in": "header",
            "type": "string",
            "default": "application/json",
            "enum": [
              "application/vnd.api+json",
              "application/json"
            ],
            "required": true,
            "description": "string parameter"
          }
        ],
        "responses": {
          "200": {
            "description": "OK",
            "schema": {
              "$ref": "#/definitions/DragAnchor_get"
            }
          },
          "403": {
            "description": "Forbidden"
          },
          "404": {
            "description": "Not Found"
          }
        },
        "produces": [
          "application/json"
        ],
        "description": "Retrieve DragAnchor from drag_anchor",
        "operationId": "RetrieveaDragAnchorobject_1"
      },
      "patch": {
        "tags": [
          "drag_anchor"
        ],
        "parameters": [
          {
            "name": "DragAnchorId",
            "in": "path",
            "type": "integer",
            "format": "int64",
            "default": 1,
            "required": true,
            "description": "integer parameter"
          },
          {
            "name": "Content-Type",
            "in": "header",
            "type": "string",
            "default": "application/json",
            "enum": [
              "application/vnd.api+json",
              "application/json"
            ],
            "required": true,
            "description": "string parameter"
          },
          {
            "name": "PATCH body",
            "in": "body",
            "description": "DragAnchor attributes",
            "schema": {
              "$ref": "#/definitions/DragAnchor_patch"
            },
            "required": true
          }
        ],
        "responses": {
          "201": {
            "description": "Created"
          },
          "403": {
            "description": "Forbidden"
          },
          "404": {
            "description": "Not Found"
          }
        },
        "produces": [
          "application/json"
        ],
        "summary": "Update DragAnchor",
        "description": "Update DragAnchor attributes",
        "operationId": "UpdateDragAnchor_0"
      },
      "delete": {
        "tags": [
          "drag_anchor"
        ],
        "parameters": [
          {
            "name": "DragAnchorId",
            "in": "path",
            "type": "integer",
            "format": "int64",
            "default": 1,
            "required": true,
            "description": "integer parameter"
          },
          {
            "name": "Content-Type",
            "in": "header",
            "type": "string",
            "default": "application/json",
            "enum": [
              "application/vnd.api+json",
              "application/json"
            ],
            "required": true,
            "description": "string parameter"
          }
        ],
        "responses": {
          "204": {
            "description": "Request fulfilled, nothing follows"
          },
          "403": {
            "description": "Forbidden"
          },
          "404": {
            "description": "Not Found"
          }
        },
        "produces": [
          "application/json"
        ],
        "summary": "Delete DragAnchor from drag_anchor",
        "operationId": "DeleteDragAnchorfromdraganchor_0"
      }
    },
    "/mooring_line": {
      "get": {
        "tags": [
          "mooring_line"
        ],
        "summary": "Retrieve a collection of MooringLine objects",
        "parameters": [
          {
            "default": "",
            "type": "string",
            "name": "include",
            "in": "query",
            "format": "string",
            "required": false,
            "description": "MooringLine relationships to include (csv)"
          },
          {
            "default": "id,catalogue_id,type,material,quality,diameter,weight_in_air,weight_in_water,mbl,ea,cost_per_meter,ad,m,failure_rate_repair,failure_rate_replacement",
            "type": "string",
            "name": "fields[MooringLine]",
            "in": "query",
            "format": "string",
            "required": false,
            "description": "MooringLine fields to include (csv)"
          },
          {
            "default": 0,
            "type": "integer",
            "name": "page[offset]",
            "in": "query",
            "format": "int64",
            "required": false,
            "description": "Page offset"
          },
          {
            "default": 10,
            "type": "integer",
            "name": "page[limit]",
            "in": "query",
            "format": "int64",
            "required": false,
            "description": "Max number of items"
          },
          {
            "default": "id,catalogue_id,type,material,quality,diameter,weight_in_air,weight_in_water,mbl,ea,cost_per_meter,ad,m,failure_rate_repair,failure_rate_replacement,id",
            "type": "string",
            "name": "sort",
            "in": "query",
            "format": "string",
            "required": false,
            "description": "Sort order"
          },
          {
            "default": "",
            "type": "string",
            "name": "filter[id]",
            "in": "query",
            "format": "string",
            "required": false,
            "description": "id attribute filter (csv)"
          },
          {
            "default": "",
            "type": "string",
            "name": "filter[catalogue_id]",
            "in": "query",
            "format": "string",
            "required": false,
            "description": "catalogue_id attribute filter (csv)"
          },
          {
            "default": "",
            "type": "string",
            "name": "filter[type]",
            "in": "query",
            "format": "string",
            "required": false,
            "description": "type attribute filter (csv)"
          },
          {
            "default": "",
            "type": "string",
            "name": "filter[material]",
            "in": "query",
            "format": "string",
            "required": false,
            "description": "material attribute filter (csv)"
          },
          {
            "default": "",
            "type": "string",
            "name": "filter[quality]",
            "in": "query",
            "format": "string",
            "required": false,
            "description": "quality attribute filter (csv)"
          },
          {
            "default": "",
            "type": "string",
            "name": "filter[diameter]",
            "in": "query",
            "format": "string",
            "required": false,
            "description": "diameter attribute filter (csv)"
          },
          {
            "default": "",
            "type": "string",
            "name": "filter[weight_in_air]",
            "in": "query",
            "format": "string",
            "required": false,
            "description": "weight_in_air attribute filter (csv)"
          },
          {
            "default": "",
            "type": "string",
            "name": "filter[weight_in_water]",
            "in": "query",
            "format": "string",
            "required": false,
            "description": "weight_in_water attribute filter (csv)"
          },
          {
            "default": "",
            "type": "string",
            "name": "filter[mbl]",
            "in": "query",
            "format": "string",
            "required": false,
            "description": "mbl attribute filter (csv)"
          },
          {
            "default": "",
            "type": "string",
            "name": "filter[ea]",
            "in": "query",
            "format": "string",
            "required": false,
            "description": "ea attribute filter (csv)"
          },
          {
            "default": "",
            "type": "string",
            "name": "filter[cost_per_meter]",
            "in": "query",
            "format": "string",
            "required": false,
            "description": "cost_per_meter attribute filter (csv)"
          },
          {
            "default": "",
            "type": "string",
            "name": "filter[ad]",
            "in": "query",
            "format": "string",
            "required": false,
            "description": "ad attribute filter (csv)"
          },
          {
            "default": "",
            "type": "string",
            "name": "filter[m]",
            "in": "query",
            "format": "string",
            "required": false,
            "description": "m attribute filter (csv)"
          },
          {
            "default": "",
            "type": "string",
            "name": "filter[failure_rate_repair]",
            "in": "query",
            "format": "string",
            "required": false,
            "description": "failure_rate_repair attribute filter (csv)"
          },
          {
            "default": "",
            "type": "string",
            "name": "filter[failure_rate_replacement]",
            "in": "query",
            "format": "string",
            "required": false,
            "description": "failure_rate_replacement attribute filter (csv)"
          },
          {
            "default": "",
            "type": "string",
            "name": "filter",
            "in": "query",
            "format": "string",
            "required": false,
            "description": "Custom MooringLine filter"
          },
          {
            "name": "Content-Type",
            "in": "header",
            "type": "string",
            "default": "application/json",
            "enum": [
              "application/vnd.api+json",
              "application/json"
            ],
            "required": true,
            "description": "string parameter"
          }
        ],
        "responses": {
          "200": {
            "description": "OK",
            "schema": {
              "$ref": "#/definitions/MooringLine_get"
            }
          },
          "403": {
            "description": "Forbidden"
          },
          "404": {
            "description": "Not Found"
          }
        },
        "produces": [
          "application/json"
        ],
        "description": "Retrieve MooringLine from mooring_line",
        "operationId": "RetrieveaMooringLineobject_0"
      },
      "post": {
        "tags": [
          "mooring_line"
        ],
        "summary": "Create MooringLine",
        "parameters": [
          {
            "name": "Content-Type",
            "in": "header",
            "type": "string",
            "default": "application/json",
            "enum": [
              "application/vnd.api+json",
              "application/json"
            ],
            "required": true,
            "description": "string parameter"
          },
          {
            "name": "POST body",
            "in": "body",
            "description": "MooringLine attributes",
            "schema": {
              "$ref": "#/definitions/MooringLine_post"
            },
            "required": true
          }
        ],
        "responses": {
          "201": {
            "description": "Created"
          },
          "403": {
            "description": "Forbidden"
          },
          "404": {
            "description": "Not Found"
          }
        },
        "produces": [
          "application/json"
        ],
        "operationId": "CreateMooringLine_0"
      }
    },
    "/mooring_line/{MooringLineId}": {
      "get": {
        "tags": [
          "mooring_line"
        ],
        "summary": "Retrieve a MooringLine object",
        "parameters": [
          {
            "default": "",
            "type": "string",
            "name": "include",
            "in": "query",
            "format": "string",
            "required": false,
            "description": "MooringLine relationships to include (csv)"
          },
          {
            "default": "id,catalogue_id,type,material,quality,diameter,weight_in_air,weight_in_water,mbl,ea,cost_per_meter,ad,m,failure_rate_repair,failure_rate_replacement",
            "type": "string",
            "name": "fields[MooringLine]",
            "in": "query",
            "format": "string",
            "required": false,
            "description": "MooringLine fields to include (csv)"
          },
          {
            "name": "MooringLineId",
            "in": "path",
            "type": "integer",
            "format": "int64",
            "default": 1,
            "required": true,
            "description": "integer parameter"
          },
          {
            "name": "Content-Type",
            "in": "header",
            "type": "string",
            "default": "application/json",
            "enum": [
              "application/vnd.api+json",
              "application/json"
            ],
            "required": true,
            "description": "string parameter"
          }
        ],
        "responses": {
          "200": {
            "description": "OK",
            "schema": {
              "$ref": "#/definitions/MooringLine_get"
            }
          },
          "403": {
            "description": "Forbidden"
          },
          "404": {
            "description": "Not Found"
          }
        },
        "produces": [
          "application/json"
        ],
        "description": "Retrieve MooringLine from mooring_line",
        "operationId": "RetrieveaMooringLineobject_1"
      },
      "patch": {
        "tags": [
          "mooring_line"
        ],
        "parameters": [
          {
            "name": "MooringLineId",
            "in": "path",
            "type": "integer",
            "format": "int64",
            "default": 1,
            "required": true,
            "description": "integer parameter"
          },
          {
            "name": "Content-Type",
            "in": "header",
            "type": "string",
            "default": "application/json",
            "enum": [
              "application/vnd.api+json",
              "application/json"
            ],
            "required": true,
            "description": "string parameter"
          },
          {
            "name": "PATCH body",
            "in": "body",
            "description": "MooringLine attributes",
            "schema": {
              "$ref": "#/definitions/MooringLine_patch"
            },
            "required": true
          }
        ],
        "responses": {
          "201": {
            "description": "Created"
          },
          "403": {
            "description": "Forbidden"
          },
          "404": {
            "description": "Not Found"
          }
        },
        "produces": [
          "application/json"
        ],
        "summary": "Update MooringLine",
        "description": "Update MooringLine attributes",
        "operationId": "UpdateMooringLine_0"
      },
      "delete": {
        "tags": [
          "mooring_line"
        ],
        "parameters": [
          {
            "name": "MooringLineId",
            "in": "path",
            "type": "integer",
            "format": "int64",
            "default": 1,
            "required": true,
            "description": "integer parameter"
          },
          {
            "name": "Content-Type",
            "in": "header",
            "type": "string",
            "default": "application/json",
            "enum": [
              "application/vnd.api+json",
              "application/json"
            ],
            "required": true,
            "description": "string parameter"
          }
        ],
        "responses": {
          "204": {
            "description": "Request fulfilled, nothing follows"
          },
          "403": {
            "description": "Forbidden"
          },
          "404": {
            "description": "Not Found"
          }
        },
        "produces": [
          "application/json"
        ],
        "summary": "Delete MooringLine from mooring_line",
        "operationId": "DeleteMooringLinefrommooringline_0"
      }
    }
  },
  "definitions": {
    "DragAnchor_get": {
      "properties": {
        "id": {
          "type": "integer"
        },
        "catalogue_id": {
          "type": "string"
        },
        "m_soft_soil": {
          "type": "number"
        },
        "b_soft_soil": {
          "type": "number"
        },
        "m_mid_soil": {
          "type": "number"
        },
        "b_mid_soil": {
          "type": "number"
        },
        "m_stiff_soil_sand": {
          "type": "number"
        },
        "b_stiff_soil_sand": {
          "type": "number"
        },
        "m_A": {
          "type": "number"
        },
        "b_A": {
          "type": "number"
        },
        "m_B": {
          "type": "number"
        },
        "b_B": {
          "type": "number"
        },
        "m_EF": {
          "type": "number"
        },
        "b_EF": {
          "type": "number"
        },
        "Rel_soft_soil": {
          "type": "integer"
        },
        "Rel_mid_soil": {
          "type": "integer"
        },
        "Rel_stiff_soil": {
          "type": "integer"
        }
      }
    },
    "DragAnchor_post": {
      "properties": {
        "data": {
          "example": {
            "attributes": {
              "catalogue_id": "",
              "m_soft_soil": 0.0,
              "b_soft_soil": 0.0,
              "m_mid_soil": 0.0,
              "b_mid_soil": 0.0,
              "m_stiff_soil_sand": 0.0,
              "b_stiff_soil_sand": 0.0,
              "m_A": 0.0,
              "b_A": 0.0,
              "m_B": 0.0,
              "b_B": 0.0,
              "m_EF": 0.0,
              "b_EF": 0.0,
              "Rel_soft_soil": 0,
              "Rel_mid_soil": 0,
              "Rel_stiff_soil": 0
            },
            "type": "DragAnchor"
          },
          "type": "object"
        }
      }
    },
    "DragAnchor_patch": {
      "properties": {
        "data": {
          "example": {
            "attributes": {
              "catalogue_id": "",
              "m_soft_soil": 0.0,
              "b_soft_soil": 0.0,
              "m_mid_soil": 0.0,
              "b_mid_soil": 0.0,
              "m_stiff_soil_sand": 0.0,
              "b_stiff_soil_sand": 0.0,
              "m_A": 0.0,
              "b_A": 0.0,
              "m_B": 0.0,
              "b_B": 0.0,
              "m_EF": 0.0,
              "b_EF": 0.0,
              "Rel_soft_soil": 0,
              "Rel_mid_soil": 0,
              "Rel_stiff_soil": 0
            },
            "id": 1,
            "type": "DragAnchor"
          },
          "type": "object"
        }
      }
    },
    "MooringLine_get": {
      "properties": {
        "id": {
          "type": "integer"
        },
        "catalogue_id": {
          "type": "string"
        },
        "type": {
          "type": "string"
        },
        "material": {
          "type": "string"
        },
        "quality": {
          "type": "string"
        },
        "diameter": {
          "type": "number"
        },
        "weight_in_air": {
          "type": "number"
        },
        "weight_in_water": {
          "type": "number"
        },
        "mbl": {
          "type": "number"
        },
        "ea": {
          "type": "number"
        },
        "cost_per_meter": {
          "type": "number"
        },
        "ad": {
          "type": "number"
        },
        "m": {
          "type": "number"
        },
        "failure_rate_repair": {
          "type": "integer"
        },
        "failure_rate_replacement": {
          "type": "number"
        }
      }
    },
    "MooringLine_post": {
      "properties": {
        "data": {
          "example": {
            "attributes": {
              "catalogue_id": "",
              "material": "",
              "quality": "",
              "diameter": 0.0,
              "weight_in_air": 0.0,
              "weight_in_water": 0.0,
              "mbl": 0.0,
              "ea": 0.0,
              "cost_per_meter": 0.0,
              "ad": 0.0,
              "m": 0.0,
              "failure_rate_repair": 0,
              "failure_rate_replacement": 0.0
            },
            "type": "MooringLine"
          },
          "type": "object"
        }
      }
    },
    "MooringLine_patch": {
      "properties": {
        "data": {
          "example": {
            "attributes": {
              "catalogue_id": "",
              "material": "",
              "quality": "",
              "diameter": 0.0,
              "weight_in_air": 0.0,
              "weight_in_water": 0.0,
              "mbl": 0.0,
              "ea": 0.0,
              "cost_per_meter": 0.0,
              "ad": 0.0,
              "m": 0.0,
              "failure_rate_repair": 0,
              "failure_rate_replacement": 0.0
            },
            "id": 1,
            "type": "MooringLine"
          },
          "type": "object"
        }
      }
    }
  },
  "tags": [
    {
      "name": "drag_anchor"
    },
    {
      "name": "mooring_line"
    }
  ]
}