{
  "benchmark": {
    "fields": [
      {
        "name": "index",
        "type": "integer"
      },
      {
        "name": "id",
        "type": "integer"
      },
      {
        "name": "technology",
        "type": "string"
      },
      {
        "name": "stage",
        "type": "string"
      },
      {
        "name": "capex",
        "type": "integer"
      },
      {
        "name": "opex_year",
        "type": "integer"
      },
      {
        "name": "lcoe",
        "type": "number"
      },
      {
        "name": "break_station_keeping",
        "type": "integer"
      },
      {
        "name": "break_electrical",
        "type": "integer"
      },
      {
        "name": "break_device",
        "type": "integer"
      },
      {
        "name": "break_installation",
        "type": "integer"
      },
      {
        "name": "break_other",
        "type": "integer"
      },
      {
        "name": "break_opex",
        "type": "integer"
      }
    ],
    "primaryKey": [
      "index"
    ],
    "pandas_version": "0.20.0"
  }
}
